<?xml version="1.0" encoding="UTF-8" standalone="no"?>
<!-- Generator: Adobe Illustrator 15.1.0, SVG Export Plug-In . SVG Version: 6.00 Build 0)  -->

<svg
   xmlns:dc="http://purl.org/dc/elements/1.1/"
   xmlns:cc="http://creativecommons.org/ns#"
   xmlns:rdf="http://www.w3.org/1999/02/22-rdf-syntax-ns#"
   xmlns:svg="http://www.w3.org/2000/svg"
   xmlns="http://www.w3.org/2000/svg"
   xmlns:sodipodi="http://sodipodi.sourceforge.net/DTD/sodipodi-0.dtd"
   xmlns:inkscape="http://www.inkscape.org/namespaces/inkscape"
   version="1.1"
   id="Layer_1"
   x="0px"
   y="0px"
   width="40"
   height="40"
   viewBox="0 0 40 40"
   enable-background="new 0 0 35 35"
   xml:space="preserve"
   inkscape:version="0.48.4 r9939"
   sodipodi:docname="vkontakte-icon.svg"><metadata
     id="metadata13"><rdf:RDF><cc:Work
         rdf:about=""><dc:format>image/svg+xml</dc:format><dc:type
           rdf:resource="http://purl.org/dc/dcmitype/StillImage" /><dc:title></dc:title></cc:Work></rdf:RDF></metadata><defs
     id="defs11" /><sodipodi:namedview
     pagecolor="#ffffff"
     bordercolor="#666666"
     borderopacity="1"
     objecttolerance="10"
     gridtolerance="10"
     guidetolerance="10"
     inkscape:pageopacity="0"
     inkscape:pageshadow="2"
     inkscape:window-width="959"
     inkscape:window-height="744"
     id="namedview9"
     showgrid="false"
     inkscape:zoom="6.7428571"
     inkscape:cx="15.201"
     inkscape:cy="15.201"
     inkscape:window-x="65"
     inkscape:window-y="24"
     inkscape:window-maximized="1"
     inkscape:current-layer="g3" /><g
     id="g3"
     transform="translate(0,5)"><path
       d="M 42.012639,-7.7837458 H -2.5693595 c -3.944984,0 -7.1443524,2.7480527 -7.1443524,6.1398684 V 36.645877 c 0,3.395142 3.1993684,6.139868 7.1443524,6.139868 H 42.012639 c 3.948857,0 7.148225,-2.744726 7.148225,-6.139868 V -1.6438774 c 0,-3.3918157 -3.199368,-6.1398684 -7.148225,-6.1398684 z"
       id="path5"
       inkscape:connector-curvature="0"
       style="fill:#4e6d90" /><path
       d="m 29.135271,21.207508 c -0.59,0 -2.221,0 -2.828,0 -1.597,0 -1.869,-0.91 -3.185,-2.226 -1.188,-1.189 -1.848,-0.276 -1.819,1.418 0.008,0.449 -0.213,0.808 -0.751,0.808 -1.675,0 -4.083,0.236 -6.519,-2.393 -2.632,-2.84 -4.8569998,-7.82 -5.0509998,-8.335 -0.194,-0.5149995 0.079,-0.7699995 0.633,-0.7699995 0.6179998,0 2.4589998,0 2.8759998,0 0.76,0 0.826,0.3909995 1.039,0.8759995 0.883,2.016 3.002,6.062 3.565,3.804 0.324,-1.296 0.457,-4.06 -0.931,-4.318 -0.984,-0.1839995 1.425,-1.4529995 4.206,-0.8069995 1.018,0.235 1.021,0.694 1.007,1.3599995 -0.05,2.521 -0.354,3.978 0.31,4.407 0.635,0.409 2.307,-2.277 3.186,-4.35 0.242,-0.573 0.291,-0.9729995 0.973,-0.9729995 3.416,0 3.159,0 3.52,0 1.842,0 -0.239,2.6629995 -1.833,4.7299995 -1.284,1.664 -1.213,1.696 0.277,3.08 1.566,1.457 3.548,3.689 1.325,3.689 z"
       id="path7"
       inkscape:connector-curvature="0"
       style="fill:#ffffff" /></g></svg>